{
    "body": [{
        "id": 1,
        "title": "Tunisia - Italy Cable System (HANNIBAL)",
        "info": "High delivery efficiency: delivered in 9 months. Extend international coverage for business growth. Provide international redundant connectivity",
        "projectType": "New Build",
        "type": "Case study",
        "distance": 178,
        "completed": false,
        "region": "",
        "locations": [{
            "id": "TUN",
            "name": "Tunisia",
            "lat": 36.83347,
            "lng": 11.07147
        }, {
            "id": "ITA",
            "name": "Italy",
            "lat": 37.650121,
            "lng": 12.59582
        }],
        "paths": [
            [{
                "lat": 36.83347,
                "lng": 11.07147
            }, {
                "lat": 36.810932,
                "lng": 11.09893
            }, {
                "lat": 36.803785,
                "lng": 11.13464
            }, {
                "lat": 36.803236,
                "lng": 11.17446
            }, {
                "lat": 36.802687,
                "lng": 11.2033
            }, {
                "lat": 36.826875,
                "lng": 11.24725
            }, {
                "lat": 36.952087,
                "lng": 11.55487
            }, {
                "lat": 36.957842,
                "lng": 11.56242
            }, {
                "lat": 36.972789,
                "lng": 11.56946
            }, {
                "lat": 36.983072,
                "lng": 11.57066
            }, {
                "lat": 37.005827,
                "lng": 11.56997
            }, {
                "lat": 37.048601,
                "lng": 11.55761
            }, {
                "lat": 37.40071,
                "lng": 12.40356
            }, {
                "lat": 37.479762,
                "lng": 12.41592
            }, {
                "lat": 37.556233,
                "lng": 12.51205
            }, {
                "lat": 37.650121,
                "lng": 12.59582
            }]
        ]
    }, {
        "id": 2,
        "title": "Tobruk-Emasaed Cable System (TECS)",
        "info": "Connect Tobruk and El Quawef in Libya",
        "projectType": "New Build",
        "type": "Case study",
        "distance": 178,
        "completed": true,
        "region": "3",
        "locations": [{
            "id": "LBY",
            "name": "Libya",
            "lat": 32.073266,
            "lng": 23.950195
        }, {
            "id": "LBY",
            "name": "Libya",
            "lat": 31.68377,
            "lng": 25.114746
        }],
        "paths": {
            "path1": [{
                "lat": 32.073266,
                "lng": 23.950195
            }, {
                "lat": 32.165692,
                "lng": 24.052505
            }, {
                "lat": 32.234875,
                "lng": 24.180908
            }, {
                "lat": 32.211639,
                "lng": 24.690399
            }, {
                "lat": 32.075593,
                "lng": 25.074921
            }, {
                "lat": 32.044143,
                "lng": 25.113029
            }, {
                "lat": 31.996395,
                "lng": 25.120926
            }, {
                "lat": 31.941642,
                "lng": 25.10891
            }, {
                "lat": 31.891551,
                "lng": 25.109253
            }, {
                "lat": 31.828547,
                "lng": 25.146332
            }, {
                "lat": 31.772543,
                "lng": 25.193024
            }, {
                "lat": 31.725831,
                "lng": 25.186157
            }, {
                "lat": 31.68377,
                "lng": 25.114746
            }]
        }
    }, {
        "id": 3,
        "title": "Mataram to Kupang Cable System (MKCS)",
        "info": "Improve domestic communication quality by subtituting existed SDH microwave transmission. Redesign route during DT due to remained WW2 naval mine on client's planned route",
        "projectType": "New Build",
        "type": "Case study",
        "distance": 1318,
        "completed": true,
        "region": "0",
        "locations": [{
            "id": "IDN",
            "name": "Indonesia Domestic",
            "lat": -8.57559,
            "lng": 116.081543
        }, {
            "id": "IDN",
            "name": "Indonesia Domestic",
            "lat": -8.293035,
            "lng": 118.866577
        }, {
            "id": "IDN",
            "name": "Indonesia Domestic",
            "lat": -8.466939,
            "lng": 117.405396
        }, {
            "id": "IDN",
            "name": "Indonesia Domestic",
            "lat": -8.803654,
            "lng": 118.67569
        }, {
            "id": "IDN",
            "name": "Indonesia Domestic",
            "lat": -10.174374,
            "lng": 123.612671
        }],
        "paths": {
            "path1": [{
                "lat": -8.57559,
                "lng": 116.081543
            }, {
                "lat": -8.519226,
                "lng": 116.023178
            }, {
                "lat": -8.457431,
                "lng": 115.984039
            }, {
                "lat": -8.372515,
                "lng": 115.964127
            }, {
                "lat": -8.293035,
                "lng": 115.988159
            }, {
                "lat": -8.234594,
                "lng": 116.062317
            }, {
                "lat": -8.187024,
                "lng": 116.155701
            }, {
                "lat": -8.161195,
                "lng": 116.243591
            }, {
                "lat": -8.15168,
                "lng": 116.345215
            }, {
                "lat": -8.129929,
                "lng": 116.526489
            }, {
                "lat": -8.080985,
                "lng": 116.902771
            }, {
                "lat": -7.996677,
                "lng": 117.416382
            }, {
                "lat": -7.969478,
                "lng": 117.864075
            }, {
                "lat": -8.034754,
                "lng": 118.146973
            }, {
                "lat": -8.100016,
                "lng": 118.206024
            }, {
                "lat": -8.132646,
                "lng": 118.236923
            }, {
                "lat": -8.143524,
                "lng": 118.278809
            }, {
                "lat": -8.143524,
                "lng": 118.473816
            }, {
                "lat": -8.192461,
                "lng": 118.737488
            }, {
                "lat": -8.235955,
                "lng": 118.814392
            }, {
                "lat": -8.293035,
                "lng": 118.866577
            }],
            "path2": [{
                "lat": -8.466939,
                "lng": 117.405396
            }, {
                "lat": -8.034754,
                "lng": 117.213135
            }],
            "path3": [{
                "lat": -8.803654,
                "lng": 118.67569
            }, {
                "lat": -8.851825,
                "lng": 118.716545
            }, {
                "lat": -8.877267,
                "lng": 118.741093
            }, {
                "lat": -8.880999,
                "lng": 118.77388
            }, {
                "lat": -8.879644,
                "lng": 118.957214
            }, {
                "lat": -8.87286,
                "lng": 119.262085
            }, {
                "lat": -8.920347,
                "lng": 119.741364
            }, {
                "lat": -9.020728,
                "lng": 120.492554
            }, {
                "lat": -9.053277,
                "lng": 121.052856
            }, {
                "lat": -9.009877,
                "lng": 121.385193
            }, {
                "lat": -8.978679,
                "lng": 121.426392
            }, {
                "lat": -8.97461,
                "lng": 121.481323
            }, {
                "lat": -8.933911,
                "lng": 121.544495
            }, {
                "lat": -8.882358,
                "lng": 121.58844
            }, {
                "lat": -8.871503,
                "lng": 121.640625
            }, {
                "lat": -8.879305,
                "lng": 121.623802
            }, {
                "lat": -8.88575,
                "lng": 121.615219
            }, {
                "lat": -8.914242,
                "lng": 121.602173
            }, {
                "lat": -8.933234,
                "lng": 121.607323
            }, {
                "lat": -8.948156,
                "lng": 121.623459
            }, {
                "lat": -8.980036,
                "lng": 121.659851
            }, {
                "lat": -9.671154,
                "lng": 122.788696
            }, {
                "lat": -9.719883,
                "lng": 122.829895
            }, {
                "lat": -9.753724,
                "lng": 122.880707
            }, {
                "lat": -10.174374,
                "lng": 123.612671
            }]
        }
    }, {
        "id": 4,
        "title": "Batam-Dumai-Melaka Cable System (BDM)",
        "info": "Improve domestic communication quality by subtituting existed SDH microwave transmission. Redesign route during DT due to remained WW2 naval mine on client's planned route",
        "projectType": "New Build",
        "type": "Case study",
        "distance": 360,
        "completed": false,
        "region": "0",
        "locations": [{
            "id": "IDN",
            "name": "Indonesia",
            "lat": 1.695767,
            "lng": 101.413422
        }, {
            "id": "MYS",
            "name": "Malaysia",
            "lat": 2.232063,
            "lng": 102.147789
        }, {
            "id": "IDN",
            "name": "Indonesia",
            "lat": 1.13701,
            "lng": 103.947144
        }],
        "paths": {
            "path1": [{
                "lat": 1.695767,
                "lng": 101.413422
            }, {
                "lat": 1.7004,
                "lng": 101.426811
            }, {
                "lat": 1.70263,
                "lng": 101.440887
            }, {
                "lat": 1.703488,
                "lng": 101.455307
            }, {
                "lat": 1.701258,
                "lng": 101.469727
            }, {
                "lat": 1.675176,
                "lng": 101.545258
            }, {
                "lat": 1.670372,
                "lng": 101.580276
            }, {
                "lat": 1.671058,
                "lng": 101.615295
            }, {
                "lat": 1.687531,
                "lng": 101.68808
            }, {
                "lat": 1.690619,
                "lng": 101.720695
            }, {
                "lat": 1.691134,
                "lng": 101.73666
            }, {
                "lat": 1.688903,
                "lng": 101.752625
            }, {
                "lat": 1.644977,
                "lng": 101.815796
            }, {
                "lat": 1.58183,
                "lng": 101.8927
            }, {
                "lat": 1.569818,
                "lng": 101.912956
            }, {
                "lat": 1.561239,
                "lng": 101.933899
            }, {
                "lat": 1.58938,
                "lng": 101.930809
            }, {
                "lat": 1.617521,
                "lng": 101.923599
            }, {
                "lat": 1.645834,
                "lng": 101.916218
            }, {
                "lat": 1.674147,
                "lng": 101.916389
            }, {
                "lat": 1.653556,
                "lng": 101.963768
            }, {
                "lat": 1.649867,
                "lng": 101.990633
            }, {
                "lat": 1.650982,
                "lng": 102.017498
            }, {
                "lat": 1.654586,
                "lng": 102.071228
            }, {
                "lat": 1.658361,
                "lng": 102.088394
            }, {
                "lat": 1.665567,
                "lng": 102.104187
            }, {
                "lat": 1.646349,
                "lng": 102.142639
            }, {
                "lat": 1.608599,
                "lng": 102.32872
            }, {
                "lat": 1.548884,
                "lng": 102.507935
            }, {
                "lat": 1.301768,
                "lng": 102.859497
            }, {
                "lat": 1.142502,
                "lng": 103.106689
            }, {
                "lat": 1.120534,
                "lng": 103.158875
            }, {
                "lat": 1.10955,
                "lng": 103.21106
            }, {
                "lat": 1.158978,
                "lng": 103.267365
            }, {
                "lat": 1.197423,
                "lng": 103.337402
            }, {
                "lat": 1.183693,
                "lng": 103.41568
            }, {
                "lat": 1.158979,
                "lng": 103.485718
            }, {
                "lat": 1.113669,
                "lng": 103.543396
            }, {
                "lat": 1.088954,
                "lng": 103.635406
            }, {
                "lat": 1.073851,
                "lng": 103.717804
            }, {
                "lat": 1.128772,
                "lng": 103.771362
            }, {
                "lat": 1.167217,
                "lng": 103.83728
            }, {
                "lat": 1.18232,
                "lng": 103.901825
            }, {
                "lat": 1.177514,
                "lng": 103.920708
            }, {
                "lat": 1.165844,
                "lng": 103.936844
            }, {
                "lat": 1.13701,
                "lng": 103.947144
            }],
            "path2": [{
                "lat": 2.232063,
                "lng": 102.147789
            }, {
                "lat": 2.217483,
                "lng": 102.143841
            }, {
                "lat": 2.203589,
                "lng": 102.144699
            }, {
                "lat": 2.18472,
                "lng": 102.127533
            }, {
                "lat": 2.165164,
                "lng": 102.112427
            }, {
                "lat": 2.075962,
                "lng": 102.067108
            }, {
                "lat": 1.924992,
                "lng": 101.942139
            }, {
                "lat": 1.787735,
                "lng": 101.877594
            }, {
                "lat": 1.764914,
                "lng": 101.870985
            }, {
                "lat": 1.741408,
                "lng": 101.869183
            }, {
                "lat": 1.69508,
                "lng": 101.865578
            }, {
                "lat": 1.68071,
                "lng": 101.874248
            }, {
                "lat": 1.667712,
                "lng": 101.887039
            }, {
                "lat": 1.645148,
                "lng": 101.916397
            }]
        }
    }, {
        "id": 5,
        "title": "Silphium: Ultra Long Haul Unrepeatered System",
        "info": "Industry record single span commercial application.",
        "projectType": "New Build",
        "type": "Story",
        "distance": 426,
        "completed": true,
        "region": "1",
        "locations": [{
            "id": "GRC",
            "name": "Greece",
            "lat": 32.759562,
            "lng": 22.609863
        }, {
            "id": "LIB",
            "name": "Libya",
            "lat": 35.487511,
            "lng": 23.90625
        }],
        "paths": {
            "path1": [{
                "lat": 32.759562,
                "lng": 22.609863
            }, {
                "lat": 32.893325,
                "lng": 22.560425
            }, {
                "lat": 33.063924,
                "lng": 22.60437
            }, {
                "lat": 34.039005,
                "lng": 22.675781
            }, {
                "lat": 34.188968,
                "lng": 22.618103
            }, {
                "lat": 34.320755,
                "lng": 22.582397
            }, {
                "lat": 35.348736,
                "lng": 23.131714
            }, {
                "lat": 35.560997,
                "lng": 23.096008
            }, {
                "lat": 35.773258,
                "lng": 23.192139
            }, {
                "lat": 35.86455,
                "lng": 23.378906
            }, {
                "lat": 35.8846,
                "lng": 23.565674
            }, {
                "lat": 35.815581,
                "lng": 23.724976
            }, {
                "lat": 35.706377,
                "lng": 23.862305
            }, {
                "lat": 35.487511,
                "lng": 23.90625
            }]
        }
    }, {
        "id": 6,
        "title": "Boracay-Palawan Submarine Cable System (BPSCS)",
        "info": "Improve the domestic communication stability and capacity by substituting existed SDH Microwave transmission",
        "projectType": "New Build",
        "type": "Case study",
        "distance": 332,
        "completed": true,
        "region": "0",
        "locations": [{
            "id": "PHI",
            "name": "Philippines",
            "lat": 10.824539,
            "lng": 119.52301
        }, {
            "id": "PHI",
            "name": "Philippines",
            "lat": 12.025889,
            "lng": 120.256348
        }, {
            "id": "PHI",
            "name": "Philippines",
            "lat": 12.341343,
            "lng": 121.068649
        }],
        "paths": {
            "path1": [{
                "lat": 12.341343,
                "lng": 121.068649
            }, {
                "lat": 12.295727,
                "lng": 121.013718
            }, {
                "lat": 12.273585,
                "lng": 120.965652
            }, {
                "lat": 12.267882,
                "lng": 120.942993
            }, {
                "lat": 12.251444,
                "lng": 120.94368
            }, {
                "lat": 12.219232,
                "lng": 120.947456
            }, {
                "lat": 12.168226,
                "lng": 120.955353
            }, {
                "lat": 12.106451,
                "lng": 120.944366
            }, {
                "lat": 12.017148,
                "lng": 120.928574
            }, {
                "lat": 11.998012,
                "lng": 120.906258
            }, {
                "lat": 11.985592,
                "lng": 120.881195
            }, {
                "lat": 11.931852,
                "lng": 120.717773
            }, {
                "lat": 11.872727,
                "lng": 120.610657
            }, {
                "lat": 11.868022,
                "lng": 120.568085
            }, {
                "lat": 11.887508,
                "lng": 120.531006
            }, {
                "lat": 11.921103,
                "lng": 120.465088
            }, {
                "lat": 12.025889,
                "lng": 120.256348
            }],
            "path2": [{
                "lat": 10.824539,
                "lng": 119.52301
            }, {
                "lat": 10.840724,
                "lng": 119.544296
            }, {
                "lat": 10.859607,
                "lng": 119.588242
            }, {
                "lat": 10.859607,
                "lng": 119.621887
            }, {
                "lat": 10.876465,
                "lng": 119.678192
            }, {
                "lat": 10.912876,
                "lng": 119.774323
            }, {
                "lat": 11.006557,
                "lng": 119.989243
            }, {
                "lat": 11.137982,
                "lng": 120.18219
            }, {
                "lat": 11.151456,
                "lng": 120.205536
            }, {
                "lat": 11.241715,
                "lng": 120.320892
            }, {
                "lat": 11.336656,
                "lng": 120.439682
            }, {
                "lat": 11.354158,
                "lng": 120.453072
            }, {
                "lat": 11.37368,
                "lng": 120.463715
            }, {
                "lat": 11.394211,
                "lng": 120.461311
            }, {
                "lat": 11.414741,
                "lng": 120.453415
            }, {
                "lat": 11.426521,
                "lng": 120.448952
            }, {
                "lat": 11.433084,
                "lng": 120.447407
            }, {
                "lat": 11.439647,
                "lng": 120.448608
            }, {
                "lat": 11.531807,
                "lng": 120.555038
            }, {
                "lat": 11.684514,
                "lng": 120.727386
            }, {
                "lat": 11.726614,
                "lng": 120.733738
            }, {
                "lat": 11.766024,
                "lng": 120.71125
            }, {
                "lat": 11.804504,
                "lng": 120.660781
            }, {
                "lat": 11.868023,
                "lng": 120.568084
            }]
        }
    }, {
        "id": 7,
        "title": "Flores-Corvo Submarine System (FCSS)",
        "info": "Connect 4 islands of Azores, Portugal",
        "projectType": "New Build",
        "type": "Case study",
        "distance": 685,
        "completed": false,
        "region": "1",
        "locations": [{
          "id": "PRT",
          "name": "Portugal",
          "lat": 39.083172,
          "lng": -28.020630
        },
        {
          "id": "PRT",
          "name": "Portugal",
          "lat": 39.681826,
          "lng": -31.102295
        },
        {
          "id": "PRT",
          "name": "Portugal",
          "lat": 39.444678,
          "lng": -31.157227
        },
        {
          "id": "PRT",
          "name": "Portugal",
          "lat": 38.535276,
          "lng": -28.641357
        }],
        "paths": {
            "path1": [{
                "lat": 39.083172,
                "lng": -28.02063
            }, {
                "lat": 39.033572,
                "lng": -28.003464
            }, {
                "lat": 39.002367,
                "lng": -28.014107
            }, {
                "lat": 38.994639,
                "lng": -28.043976
            }, {
                "lat": 39.007446,
                "lng": -28.114014
            }, {
                "lat": 39.198205,
                "lng": -28.575439
            }, {
                "lat": 39.338472,
                "lng": -28.850098
            }, {
                "lat": 39.402244,
                "lng": -29.157715
            }, {
                "lat": 39.559038,
                "lng": -29.465332
            }, {
                "lat": 39.614152,
                "lng": -29.805908
            }, {
                "lat": 39.715638,
                "lng": -30.234375
            }, {
                "lat": 39.719861,
                "lng": -30.668335
            }, {
                "lat": 39.681826,
                "lng": -31.102295
            }, {
                "lat": 39.61521,
                "lng": -30.974579
            }, {
                "lat": 39.546393,
                "lng": -30.957413
            }, {
                "lat": 39.508797,
                "lng": -30.973549
            }, {
                "lat": 39.478606,
                "lng": -31.002045
            }, {
                "lat": 39.444678,
                "lng": -31.157227
            }, {
                "lat": 39.410733,
                "lng": -30.984192
            }, {
                "lat": 39.382067,
                "lng": -30.899048
            }, {
                "lat": 39.327924,
                "lng": -30.874329
            }, {
                "lat": 39.109587,
                "lng": -30.623016
            }, {
                "lat": 38.989303,
                "lng": -30.355225
            }, {
                "lat": 38.965816,
                "lng": -30.06134
            }, {
                "lat": 38.839708,
                "lng": -29.816895
            }, {
                "lat": 38.61687,
                "lng": -29.437866
            }, {
                "lat": 38.496594,
                "lng": -28.894043
            }, {
                "lat": 38.535276,
                "lng": -28.641357
            }]
        }
    }, {
        "id": 8,
        "title": "TSE-1 Submarine Cable System",
        "info": "Fulfill stringent burial requirement of 3.5m to gain permit crossing busy fishing area",
        "projectType": "New Build",
        "type": "Story",
        "distance": 205,
        "completed": true,
        "region": "0",
        "locations": [{
            "id": "CHN",
            "name": "Fujian",
            "lat": 25.185059,
            "lng": 121.423645
        }, {
            "id": "TWN",
            "name": "Taiwan",
            "lat": 25.89382,
            "lng": 119.602661
        }],
        "paths": {
            "path1": [{
                "lat": 25.185059,
                "lng": 121.423645
            }, {
                "lat": 25.201835,
                "lng": 121.405792
            }, {
                "lat": 25.200592,
                "lng": 121.382446
            }, {
                "lat": 25.495347,
                "lng": 120.907288
            }, {
                "lat": 25.64519,
                "lng": 120.804291
            }, {
                "lat": 25.715786,
                "lng": 120.613403
            }, {
                "lat": 25.785053,
                "lng": 120.393677
            }, {
                "lat": 25.89382,
                "lng": 119.602661
            }]
        }
    }, {
        "id": 9,
        "title": "XL Bali Lombok Submarine Cable System",
        "info": "Connect 2 islands of Bali and Lombok",
        "projectType": "New Build",
        "type": "Case study",
        "distance": 50,
        "completed": true,
        "region": "0",
        "locations": [{
            "id": "IDN",
            "name": "Indonesia",
            "lat": -8.419734,
            "lng": 115.671616
        }, {
            "id": "IDN",
            "name": "Indonesia",
            "lat": -8.479164,
            "lng": 116.041718
        }],
        "paths": {
            "path1": [{
                "lat": -8.419734,
                "lng": 115.671616
            }, {
                "lat": -8.433998,
                "lng": 115.694275
            }, {
                "lat": -8.437734,
                "lng": 115.705776
            }, {
                "lat": -8.438753,
                "lng": 115.717964
            }, {
                "lat": -8.433998,
                "lng": 115.780449
            }, {
                "lat": -8.440451,
                "lng": 115.787659
            }, {
                "lat": -8.479164,
                "lng": 116.041718
            }]
        }
    }, {
        "id": 10,
        "title": "West Africa Cable System (WACS)",
        "info": "South Africa-United Kingdom, spanning 14,530 km across 14 counties (15 sites)",
        "projectType": "New Build",
        "type": "Case study",
        "distance": 50,
        "completed": true,
        "region": "3",
        "locations": [{
            "id": "UK",
            "name": "United Kingdom",
            "lat": 50.303376,
            "lng": -4.460449
        }, {
            "id": "South Africa",
            "name": "Indonesia",
            "lat": -34.597042,
            "lng": 21.840820
        }],
        "paths": {
            "path1": [{
                "lat": 40.044438,
                "lng": -9.030762
            }, {
                "lat": 28.091366,
                "lng": -15.754395
            }, {
                "lat": 15.241790,
                "lng": -23.598633
            }, {
                "lat": 4.959615,
                "lng": -5.646973
            }, {
                "lat": 5.134715,
                "lng": -0.812988
            }, {
                "lat": -12.554564,
                "lng": 13.359375
            }]
        }
    }]
}
